<?xml version="1.0" encoding="UTF-8"?>
<!DOCTYPE svg PUBLIC "-//W3C//DTD SVG 1.1//EN" "http://www.w3.org/Graphics/SVG/1.1/DTD/svg11.dtd">
<!-- Creator: CorelDRAW -->
<svg xmlns="http://www.w3.org/2000/svg" xml:space="preserve" width="35.4606mm" height="35.4606mm" style="shape-rendering:geometricPrecision; text-rendering:geometricPrecision; image-rendering:optimizeQuality; fill-rule:evenodd; clip-rule:evenodd"
viewBox="0 0 58.282 58.282"
 xmlns:xlink="http://www.w3.org/1999/xlink">
 <defs>
  <style type="text/css">
   <![CDATA[
    .fil0 {fill:#1B1C1F}
    .fil1 {fill:#1B1C1F;fill-rule:nonzero}
   ]]>
  </style>
 </defs>
 <g id="Layer_x0020_1">
  <metadata id="CorelCorpID_0Corel-Layer"/>
  <g id="_152222920">
   <path id="_152222248" class="fil0" d="M24.1857 22.4995c-5.44655,3.14453 2.86367,18.724 8.82368,15.283 1.0584,1.83322 4.46756,7.73807 5.52595,9.57124 -2.51464,1.45186 -4.64315,2.36711 -7.55853,0.700539 -8.09458,-4.6273 -17.0046,-20.0543 -16.7511,-29.2558 0.0880456,-3.19599 1.971,-4.44824 4.43399,-5.87024 1.0584,1.83316 4.46756,7.73801 5.52595,9.57124z"/>
   <path id="_150519168" class="fil0" d="M26.4704 22.2399c-0.588492,0.339781 -1.3458,0.136973 -1.68564,-0.451581l-5.2095 -9.02316c-0.339842,-0.588616 -0.137035,-1.34586 0.451519,-1.6857l2.73799 -1.58075c0.588554,-0.339842 1.34598,-0.13685 1.68576,0.451704l5.2095 9.0231c0.339781,0.588492 0.136912,1.3458 -0.451581,1.68558l-2.73805 1.58081z"/>
   <path id="_226148072" class="fil0" d="M40.7023 46.8904c-0.588492,0.339781 -1.3458,0.136973 -1.68564,-0.451642l-5.2095 -9.02316c-0.339842,-0.588554 -0.137035,-1.34586 0.451519,-1.68564l2.73799 -1.58081c0.588554,-0.339781 1.34598,-0.136788 1.68576,0.451704l5.2095 9.0231c0.339781,0.588554 0.136912,1.34586 -0.451581,1.68564l-2.73805 1.58081z"/>
  </g>
  <path class="fil1" d="M29.1409 -2.84495e-015l0.000431898 0 0 0.00678697c8.04997,0.0001234 15.335,3.26003 20.6045,8.52962 5.26928,5.26934 8.52907,12.5539 8.52931,20.6036l0.00678697 0 0 0.000925496 0 0.000431898 -0.00678697 0c-0.0001234,8.05003 -3.26003,15.335 -8.52962,20.6045 -5.26941,5.26928 -12.554,8.52907 -20.6037,8.52931l0 0.00678697 -0.000925496 0 -0.000431898 0 0 -0.00678697c-8.04997,-0.0001234 -15.3349,-3.26003 -20.6044,-8.52962 -5.26928,-5.26941 -8.52907,-12.554 -8.52931,-20.6037l-0.00678697 0 0 -0.000925496 0 -0.000431898 0.00678697 0c0.0001234,-8.04997 3.26003,-15.3349 8.52962,-20.6044 5.26934,-5.26928 12.5539,-8.52907 20.6036,-8.52931l0 -0.00678697 0.000925496 0zm0.000431898 3.47579l0 0.00678697 -0.000431898 0 -0.000925496 0 0 -0.00678697c-7.07918,0.000185099 -13.4939,2.87527 -18.1413,7.52262 -4.64766,4.6476 -7.52287,11.0626 -7.52293,18.1421l0.00678697 0 0 0.000431898 0 0.000925496 -0.00678697 0c0.000185099,7.07924 2.87527,13.4939 7.52262,18.1414 4.6476,4.64766 11.0626,7.52287 18.1421,7.52293l0 -0.00678697 0.000431898 0 0.000925496 0 0 0.00678697c7.07924,-0.000185099 13.4939,-2.87527 18.1414,-7.52262 4.64766,-4.6476 7.52287,-11.0626 7.52293,-18.1422l-0.00678697 0 0 -0.000431898 0 -0.000925496 0.00678697 0c-0.000185099,-7.07918 -2.87527,-13.4939 -7.52262,-18.1413 -4.6476,-4.64766 -11.0626,-7.52287 -18.1422,-7.52293z"/>
 </g>
</svg>
